harp newsâ€¦ and some features you might not know about
…
For gridded data, the gridded fields are returned

vfld

read_forecast(
  start_date  = 2019021700,
  end_date    = 2019021718,
  fcst_model  = "AROME_Arctic_prod",
  file_path   = system.file("vfld", package = "harpData"),
  return_data = TRUE
)

## â— AROME_Arctic_prod
## # A tibble: 65,004 x 5
##    fcdate              lead_time   SID parameter AA_det
##    <dttm>                  <dbl> <int> <chr>      <dbl>
##  1 2019-02-17 00:00:00         0  1001 D10m      215.  
##  2 2019-02-17 00:00:00         0  1002 D10m      335.  
##  3 2019-02-17 00:00:00         0  1003 D10m       14.9 
##  4 2019-02-17 00:00:00         0  1004 D10m       11.1 
##  5 2019-02-17 00:00:00         0  1006 D10m      238.  
##  6 2019-02-17 00:00:00         0  1007 D10m        9.70
##  7 2019-02-17 00:00:00         0  1008 D10m      348.  
##  8 2019-02-17 00:00:00         0  1009 D10m      344.  
##  9 2019-02-17 00:00:00         0  1010 D10m      346.  
## 10 2019-02-17 00:00:00         0  1011 D10m        6.67
## # â€¦ with 64,994 more rows
…
transformation = "interpolate"

read_forecast(
    2018071000,
    2018071000,
    "AROME_Arctic",
    "T2m",
    transformation = "interpolate",
    file_path      = system.file("grib/AROME_Arctic", package = "harpData"),
    file_template  = "harmonie_grib_fp",
    return_data    = TRUE
)

## â— AROME_Arctic
## # A tibble: 14 x 5
##   fcdate              lead_time   SID parameter AA_det
##   <dttm>                  <dbl> <int> <chr>      <dbl>
## 1 2018-07-10 00:00:00         0  1003 T2m         277.
## 2 2018-07-10 00:00:00         0  1004 T2m         278.
## 3 2018-07-10 00:00:00         0  1006 T2m         278.
## 4 2018-07-10 00:00:00         0  1007 T2m         278.
## 5 2018-07-10 00:00:00         0  1008 T2m         280.
## 6 2018-07-10 00:00:00         0  1017 T2m         277.
## 7 2018-07-10 00:00:00         0 20107 T2m         278.
## # â€¦ with 7 more rows
…
transformation = "xsection"

## â— AAEPS
## # A tibble: 130 x 7
##    fcdate              lead_time parameter level_type   level AAEPS_mbr000
##    <dttm>                  <dbl> <chr>     <chr>        <dbl> <list>      
##  1 2018-07-10 00:00:00         0 T         model      0.00987 <dbl [30]>  
##  2 2018-07-10 00:00:00         0 T         model      0.0296  <dbl [30]>  
##  3 2018-07-10 00:00:00         0 T         model      0.0494  <dbl [30]>  
##  4 2018-07-10 00:00:00         0 T         model      0.0691  <dbl [30]>  
##  5 2018-07-10 00:00:00         0 T         model      0.0890  <dbl [30]>  
##  6 2018-07-10 00:00:00         0 T         model      0.109   <dbl [30]>  
##  7 2018-07-10 00:00:00         0 T         model      0.129   <dbl [30]>  
##  8 2018-07-10 00:00:00         0 T         model      0.149   <dbl [30]>  
##  9 2018-07-10 00:00:00         0 T         model      0.169   <dbl [30]>  
## 10 2018-07-10 00:00:00         0 T         model      0.190   <dbl [30]>  
## # â€¦ with 120 more rows, and 1 more variable: AAEPS_mbr001 <list>
…
