An introduction to harp
…
Interpolated data

fcst %>% 
  select(fcdate, lead_time, SID, ends_with("_det"))
##  AROME_ARCTIC
## # A tibble: 3,630 x 4
##    fcdate              lead_time   SID AROME_ARCTIC_det
##    <dttm>                  <dbl> <int>            <dbl>
##  1 2021-03-12 00:00:00         0  1001             269.
##  2 2021-03-12 00:00:00         0  1010             273.
##  3 2021-03-12 00:00:00         0  1014             271.
##  4 2021-03-12 00:00:00         0  1015             272.
##  5 2021-03-12 00:00:00         0  1018             268.
##  6 2021-03-12 00:00:00         0  1023             267.
##  7 2021-03-12 00:00:00         0  1025             271.
##  8 2021-03-12 00:00:00         0  1026             270.
##  9 2021-03-12 00:00:00         0  1027             271.
## 10 2021-03-12 00:00:00         0  1028             266.
## #  with 3,620 more rows
## 
##  MEPS
## # A tibble: 20,895 x 4
##    fcdate              lead_time   SID MEPS_det
##    <dttm>                  <dbl> <int>    <dbl>
##  1 2021-03-12 00:00:00         0  1001     271.
##  2 2021-03-12 00:00:00         0  1010     273.
##  3 2021-03-12 00:00:00         0  1014     271.
##  4 2021-03-12 00:00:00         0  1015     272.
##  5 2021-03-12 00:00:00         0  1018     269.
##  6 2021-03-12 00:00:00         0  1023     267.
##  7 2021-03-12 00:00:00         0  1025     270.
##  8 2021-03-12 00:00:00         0  1026     270.
##  9 2021-03-12 00:00:00         0  1027     270.
## 10 2021-03-12 00:00:00         0  1028     266.
## #  with 20,885 more rows
…
fcst <- read_point_forecast(
  2021031200, 
  2021031212, 
  fcst_model = c("MEPS", "AROME_ARCTIC"), 
  fcst_type  = "det", 
  parameter  = "T2m", 
  file_path  = "suv_verifikasjonsmte_202103"
)

Reading the interpolated forecasts

fcst %>% 
  select(fcdate, leadtime, SID, ends_with("det"))
##  MEPS
## # A tibble: 20,895 x 4
##    fcdate              leadtime   SID MEPS_det
##    <dttm>                 <int> <int>    <dbl>
##  1 2021-03-12 00:00:00        0  1001     271.
##  2 2021-03-12 00:00:00        0  1010     273.
##  3 2021-03-12 00:00:00        0  1014     271.
##  4 2021-03-12 00:00:00        0  1015     272.
##  5 2021-03-12 00:00:00        0  1018     269.
##  6 2021-03-12 00:00:00        0  1023     267.
##  7 2021-03-12 00:00:00        0  1025     270.
##  8 2021-03-12 00:00:00        0  1026     270.
##  9 2021-03-12 00:00:00        0  1027     270.
## 10 2021-03-12 00:00:00        0  1028     266.
## #  with 20,885 more rows
## 
##  AROME_ARCTIC
## # A tibble: 3,630 x 4
##    fcdate              leadtime   SID AROME_ARCTIC_det
##    <dttm>                 <int> <int>            <dbl>
##  1 2021-03-12 00:00:00        0  1001             269.
##  2 2021-03-12 00:00:00        0  1010             273.
##  3 2021-03-12 00:00:00        0  1014             271.
##  4 2021-03-12 00:00:00        0  1015             272.
##  5 2021-03-12 00:00:00        0  1018             268.
##  6 2021-03-12 00:00:00        0  1023             267.
##  7 2021-03-12 00:00:00        0  1025             271.
##  8 2021-03-12 00:00:00        0  1026             270.
##  9 2021-03-12 00:00:00        0  1027             271.
## 10 2021-03-12 00:00:00        0  1028             266.
## #  with 3,620 more rows
…
